…
## What is the average daily activity pattern?
Next we make a time series plot (i.e. `type = "l"`) of the 5-minute interval (x-axis) and the average number of steps taken, averaged across all days (y-axis).
First we group the data by intervals

```r
mean.interval <- data.clean %>% 
    group_by(interval) %>%  # group now by intervals so can sum over all days
    summarize(intervalaverage = mean(steps)) # get sum
    mean.interval # display result tibble
```

```
## # A tibble: 288 x 2
##    interval intervalaverage
##       <int>           <dbl>
##  1        0          1.72  
##  2        5          0.340 
##  3       10          0.132 
##  4       15          0.151 
##  5       20          0.0755
##  6       25          2.09  
##  7       30          0.528 
##  8       35          0.868 
##  9       40          0     
## 10       45          1.47  
## # ... with 278 more rows
```
…
